{
    "name": "SPIM SP002",
    "description": "Testing Stake Pool with CNTools",
    "ticker": "SPIM2",
    "homepage": "https://example.org",
    "extended": "https://gitlab.com/santiagopim/spo/-/raw/master/extended.json"
}
